<svg width="36" height="14" viewBox="0 0 36 14" fill="none" xmlns="http://www.w3.org/2000/svg">
<path d="M35.1243 2.60939L32.3076 0.793091L21.4304 4.66014L19.3955 3.45566H14.2506V2.78453H16.4588V0.956087H10.2117V2.78453H12.4213V3.45566H6.6744L2.88674 1.27367L0 4.28605L6.13731 12.2326L6.19429 12.1878V13.2074H19.4674L32.2497 2.93305L34.1351 4.14827L35.1243 2.60939ZM2.40897 4.41308L3.21647 3.57195L6.19289 5.2883V9.31321L2.40897 4.41308ZM18.8224 11.3789H8.02366V5.28363H18.8953L21.2361 6.67073L27.4089 4.4766L18.8224 11.3789ZM36 7.9434C36 8.69953 35.3868 9.31368 34.6297 9.31368C33.8713 9.31368 33.2576 8.70093 33.2576 7.9434C33.2576 7.18447 34.6297 4.78204 34.6297 4.78204C34.6297 4.78204 36 7.1854 36 7.9434Z" fill="#FF0000"/>
</svg>
