<svg width="27" height="27" viewBox="0 0 27 27" fill="none" xmlns="http://www.w3.org/2000/svg">
<path d="M15.366 4.97431C15.366 2.23117 13.143 0 10.4005 0C7.6579 0 5.4349 2.23176 5.4349 4.97431V16.1483C4.38936 17.3374 3.8342 18.8453 3.8342 20.4343C3.8342 24.0549 6.77524 27 10.3952 27C14.0163 27 16.9603 24.0549 16.9603 20.4343C16.9603 18.8482 16.4121 17.3403 15.3666 16.1489V4.97431H15.366ZM10.3911 25.2358C7.7443 25.2358 5.59135 23.0829 5.59135 20.4349C5.59135 19.1821 6.06537 18 6.93227 17.1045C7.09164 16.9399 7.17746 16.7198 7.17746 16.491V4.97431C7.17746 3.2049 8.60945 1.76474 10.3789 1.76474C12.1483 1.76474 13.5797 3.2049 13.5797 4.97431V16.491C13.5797 16.7198 13.6789 16.9399 13.8383 17.1033C14.7046 18.0029 15.188 19.1856 15.188 20.4349C15.1874 23.0817 13.0391 25.2358 10.3911 25.2358Z" fill="#828282"/>
<path d="M11.8809 17.6194V13.5733C11.8809 12.7607 11.2125 12.1022 10.3999 12.1022C9.5873 12.1022 8.91946 12.7607 8.91946 13.5733V17.6194C7.96091 18.1442 7.27731 19.1769 7.27731 20.3637C7.27731 22.0835 8.67136 23.477 10.3911 23.477C12.1104 23.477 13.5137 22.0829 13.5137 20.3637C13.5143 19.1769 12.8395 18.1448 11.8809 17.6194Z" fill="#828282"/>
<path d="M18.164 3.29189H22.2825C22.7706 3.29189 23.1664 2.88676 23.1664 2.39872C23.1664 1.91128 22.7706 1.50555 22.2825 1.50555H18.164C17.6766 1.50555 17.2814 1.91128 17.2814 2.39872C17.282 2.88617 17.6766 3.29189 18.164 3.29189Z" fill="#828282"/>
<path d="M22.2819 5.64331H18.1634C17.676 5.64331 17.2808 6.02685 17.2808 6.5143C17.2808 7.00233 17.676 7.38587 18.1634 7.38587H22.2819C22.77 7.38587 23.1658 7.00233 23.1658 6.5143C23.1652 6.02685 22.77 5.64331 22.2819 5.64331Z" fill="#828282"/>
<path d="M22.2819 9.73788H18.1634C17.676 9.73788 17.2808 10.143 17.2808 10.6305C17.2808 11.1179 17.676 11.5231 18.1634 11.5231H22.2819C22.77 11.5231 23.1658 11.1179 23.1658 10.6305C23.1658 10.143 22.77 9.73788 22.2819 9.73788Z" fill="#828282"/>
<path d="M22.2819 13.8756H18.1634C17.676 13.8756 17.2808 14.2598 17.2808 14.7472C17.2808 15.2352 17.676 15.6182 18.1634 15.6182H22.2819C22.77 15.6182 23.1658 15.2352 23.1658 14.7472C23.1652 14.2598 22.77 13.8756 22.2819 13.8756Z" fill="#828282"/>
</svg>
