<svg width="32" height="126" viewBox="0 0 32 126" fill="none" xmlns="http://www.w3.org/2000/svg">
<g clip-path="url(#clip0)">
<mask id="mask3" mask-type="alpha" maskUnits="userSpaceOnUse" x="-41" y="15" width="107" height="96">
<path d="M7.07508 15.8212L-40.9465 83.043L0.125997 103.003L22.6145 110.338L65.5819 53.2788L40.4226 37.0069L7.07508 15.8212Z" fill="#C4C4C4"/>
</mask>
<g mask="url(#mask3)">
<circle r="88.1934" transform="matrix(0.958163 0.286222 0.286222 -0.958163 89.3688 60.7362)" stroke="white"/>
</g>
<path d="M11.5106 19.3731L16.8266 22.1553" stroke="white"/>
<path d="M3.56823 41.0103L6.49568 41.6661" stroke="white"/>
<path d="M1.29521 63.7687L7.2952 63.7793" stroke="white"/>
<path d="M5.60797 33.495L11.3245 35.3173" stroke="white"/>
<path d="M1.52193 56.1786L4.51864 56.3189" stroke="white"/>
<path d="M8.33233 26.1156L11.0982 27.2775" stroke="white"/>
<path d="M24.8999 0.630173L27.1073 2.66181" stroke="#FF0000"/>
<path d="M15.5434 12.7431L18.0684 14.363" stroke="#FF0000"/>
<path d="M20.0848 6.32033L24.8265 9.99674" stroke="#FF0000"/>
<path d="M2.24361 48.3455L8.18828 49.1585" stroke="white"/>
<path d="M5.04463 86.8407L7.91179 85.9578" stroke="white"/>
<path d="M14.3609 107.729L19.5758 104.762" stroke="white"/>
<path d="M3.08727 79.3035L8.95486 78.0499" stroke="white"/>
<path d="M10.7924 101.026L13.464 99.6614" stroke="white"/>
<path d="M1.79228 71.5446L4.77022 71.1814" stroke="white"/>
<path d="M7.53315 93.867L13.0981 91.6239" stroke="white"/>
<path d="M29.0499 125.55L31.1846 123.442" stroke="#FF0000"/>
<path d="M23.8682 120L28.3229 115.98" stroke="#FF0000"/>
<path d="M18.8671 113.928L21.2645 112.124" stroke="#FF0000"/>
</g>
</svg>
