<svg width="125" height="62" viewBox="0 0 125 62" fill="none" xmlns="http://www.w3.org/2000/svg">
<g clip-path="url(#clip0)">
<path d="M28.4602 22.1494C21.5522 23.0596 11.2028 27.3868 9.47759 29.9709C7.42656 32.3801 16.7486 38.3316 19.4059 38.4053C22.0632 38.479 100.762 36.6216 100.762 36.6216C107.586 34.6685 121.204 28.412 120.871 27.0072C120.538 25.6024 116.799 24.7826 114.971 24.5483L124.32 0.477439L119.286 0.337842C113.984 6.0974 103.172 17.9412 102.329 19.2399C101.487 20.5387 98.453 22.0704 97.0411 22.6739C77.0592 22.1198 35.3682 21.2392 28.4602 22.1494Z" fill="white"/>
<path d="M48.8903 29.7921L75.249 30.4738C75.6302 30.4836 75.9328 30.7978 75.9284 31.1791C75.9242 31.546 75.6364 31.8469 75.2701 31.8674L48.9441 33.3466C47.9467 33.4026 47.0987 32.6265 47.0663 31.6281C47.0332 30.6054 47.8674 29.7657 48.8903 29.7921Z" fill="#181BFD"/>
<line x1="17" y1="30.8675" x2="3.43323e-05" y2="30.8675" stroke="white"/>
</g>
</svg>
